%!PS-Adobe-2.0 EPSF-2.0
%%Title: obrazek.eps
%%Creator: gnuplot 4.6 patchlevel 2
%%CreationDate: Fri Nov 16 12:59:38 2018
%%DocumentFonts: (atend)
%%BoundingBox: 50 50 410 302
%%EndComments
%%BeginProlog
/gnudict 256 dict def
gnudict begin
%
% The following true/false flags may be edited by hand if desired.
% The unit line width and grayscale image gamma correction may also be changed.
%
/Color false def
/Blacktext false def
/Solid false def
/Dashlength 1 def
/Landscape false def
/Level1 false def
/Rounded false def
/ClipToBoundingBox false def
/SuppressPDFMark false def
/TransparentPatterns false def
/gnulinewidth 5.000 def
/userlinewidth gnulinewidth def
/Gamma 1.0 def
/BackgroundColor {-1.000 -1.000 -1.000} def
%
/vshift -46 def
/dl1 {
  10.0 Dashlength mul mul
  Rounded { currentlinewidth 0.75 mul sub dup 0 le { pop 0.01 } if } if
} def
/dl2 {
  10.0 Dashlength mul mul
  Rounded { currentlinewidth 0.75 mul add } if
} def
/hpt_ 31.5 def
/vpt_ 31.5 def
/hpt hpt_ def
/vpt vpt_ def
/doclip {
  ClipToBoundingBox {
    newpath 50 50 moveto 410 50 lineto 410 302 lineto 50 302 lineto closepath
    clip
  } if
} def
%
% Gnuplot Prolog Version 4.6 (September 2012)
%
%/SuppressPDFMark true def
%
/M {moveto} bind def
/L {lineto} bind def
/R {rmoveto} bind def
/V {rlineto} bind def
/N {newpath moveto} bind def
/Z {closepath} bind def
/C {setrgbcolor} bind def
/f {rlineto fill} bind def
/g {setgray} bind def
/Gshow {show} def   % May be redefined later in the file to support UTF-8
/vpt2 vpt 2 mul def
/hpt2 hpt 2 mul def
/Lshow {currentpoint stroke M 0 vshift R 
	Blacktext {gsave 0 setgray show grestore} {show} ifelse} def
/Rshow {currentpoint stroke M dup stringwidth pop neg vshift R
	Blacktext {gsave 0 setgray show grestore} {show} ifelse} def
/Cshow {currentpoint stroke M dup stringwidth pop -2 div vshift R 
	Blacktext {gsave 0 setgray show grestore} {show} ifelse} def
/UP {dup vpt_ mul /vpt exch def hpt_ mul /hpt exch def
  /hpt2 hpt 2 mul def /vpt2 vpt 2 mul def} def
/DL {Color {setrgbcolor Solid {pop []} if 0 setdash}
 {pop pop pop 0 setgray Solid {pop []} if 0 setdash} ifelse} def
/BL {stroke userlinewidth 2 mul setlinewidth
	Rounded {1 setlinejoin 1 setlinecap} if} def
/AL {stroke userlinewidth 2 div setlinewidth
	Rounded {1 setlinejoin 1 setlinecap} if} def
/UL {dup gnulinewidth mul /userlinewidth exch def
	dup 1 lt {pop 1} if 10 mul /udl exch def} def
/PL {stroke userlinewidth setlinewidth
	Rounded {1 setlinejoin 1 setlinecap} if} def
3.8 setmiterlimit
% Default Line colors
/LCw {1 1 1} def
/LCb {0 0 0} def
/LCa {0 0 0} def
/LC0 {1 0 0} def
/LC1 {0 1 0} def
/LC2 {0 0 1} def
/LC3 {1 0 1} def
/LC4 {0 1 1} def
/LC5 {1 1 0} def
/LC6 {0 0 0} def
/LC7 {1 0.3 0} def
/LC8 {0.5 0.5 0.5} def
% Default Line Types
/LTw {PL [] 1 setgray} def
/LTb {BL [] LCb DL} def
/LTa {AL [1 udl mul 2 udl mul] 0 setdash LCa setrgbcolor} def
/LT0 {PL [] LC0 DL} def
/LT1 {PL [4 dl1 2 dl2] LC1 DL} def
/LT2 {PL [2 dl1 3 dl2] LC2 DL} def
/LT3 {PL [1 dl1 1.5 dl2] LC3 DL} def
/LT4 {PL [6 dl1 2 dl2 1 dl1 2 dl2] LC4 DL} def
/LT5 {PL [3 dl1 3 dl2 1 dl1 3 dl2] LC5 DL} def
/LT6 {PL [2 dl1 2 dl2 2 dl1 6 dl2] LC6 DL} def
/LT7 {PL [1 dl1 2 dl2 6 dl1 2 dl2 1 dl1 2 dl2] LC7 DL} def
/LT8 {PL [2 dl1 2 dl2 2 dl1 2 dl2 2 dl1 2 dl2 2 dl1 4 dl2] LC8 DL} def
/Pnt {stroke [] 0 setdash gsave 1 setlinecap M 0 0 V stroke grestore} def
/Dia {stroke [] 0 setdash 2 copy vpt add M
  hpt neg vpt neg V hpt vpt neg V
  hpt vpt V hpt neg vpt V closepath stroke
  Pnt} def
/Pls {stroke [] 0 setdash vpt sub M 0 vpt2 V
  currentpoint stroke M
  hpt neg vpt neg R hpt2 0 V stroke
 } def
/Box {stroke [] 0 setdash 2 copy exch hpt sub exch vpt add M
  0 vpt2 neg V hpt2 0 V 0 vpt2 V
  hpt2 neg 0 V closepath stroke
  Pnt} def
/Crs {stroke [] 0 setdash exch hpt sub exch vpt add M
  hpt2 vpt2 neg V currentpoint stroke M
  hpt2 neg 0 R hpt2 vpt2 V stroke} def
/TriU {stroke [] 0 setdash 2 copy vpt 1.12 mul add M
  hpt neg vpt -1.62 mul V
  hpt 2 mul 0 V
  hpt neg vpt 1.62 mul V closepath stroke
  Pnt} def
/Star {2 copy Pls Crs} def
/BoxF {stroke [] 0 setdash exch hpt sub exch vpt add M
  0 vpt2 neg V hpt2 0 V 0 vpt2 V
  hpt2 neg 0 V closepath fill} def
/TriUF {stroke [] 0 setdash vpt 1.12 mul add M
  hpt neg vpt -1.62 mul V
  hpt 2 mul 0 V
  hpt neg vpt 1.62 mul V closepath fill} def
/TriD {stroke [] 0 setdash 2 copy vpt 1.12 mul sub M
  hpt neg vpt 1.62 mul V
  hpt 2 mul 0 V
  hpt neg vpt -1.62 mul V closepath stroke
  Pnt} def
/TriDF {stroke [] 0 setdash vpt 1.12 mul sub M
  hpt neg vpt 1.62 mul V
  hpt 2 mul 0 V
  hpt neg vpt -1.62 mul V closepath fill} def
/DiaF {stroke [] 0 setdash vpt add M
  hpt neg vpt neg V hpt vpt neg V
  hpt vpt V hpt neg vpt V closepath fill} def
/Pent {stroke [] 0 setdash 2 copy gsave
  translate 0 hpt M 4 {72 rotate 0 hpt L} repeat
  closepath stroke grestore Pnt} def
/PentF {stroke [] 0 setdash gsave
  translate 0 hpt M 4 {72 rotate 0 hpt L} repeat
  closepath fill grestore} def
/Circle {stroke [] 0 setdash 2 copy
  hpt 0 360 arc stroke Pnt} def
/CircleF {stroke [] 0 setdash hpt 0 360 arc fill} def
/C0 {BL [] 0 setdash 2 copy moveto vpt 90 450 arc} bind def
/C1 {BL [] 0 setdash 2 copy moveto
	2 copy vpt 0 90 arc closepath fill
	vpt 0 360 arc closepath} bind def
/C2 {BL [] 0 setdash 2 copy moveto
	2 copy vpt 90 180 arc closepath fill
	vpt 0 360 arc closepath} bind def
/C3 {BL [] 0 setdash 2 copy moveto
	2 copy vpt 0 180 arc closepath fill
	vpt 0 360 arc closepath} bind def
/C4 {BL [] 0 setdash 2 copy moveto
	2 copy vpt 180 270 arc closepath fill
	vpt 0 360 arc closepath} bind def
/C5 {BL [] 0 setdash 2 copy moveto
	2 copy vpt 0 90 arc
	2 copy moveto
	2 copy vpt 180 270 arc closepath fill
	vpt 0 360 arc} bind def
/C6 {BL [] 0 setdash 2 copy moveto
	2 copy vpt 90 270 arc closepath fill
	vpt 0 360 arc closepath} bind def
/C7 {BL [] 0 setdash 2 copy moveto
	2 copy vpt 0 270 arc closepath fill
	vpt 0 360 arc closepath} bind def
/C8 {BL [] 0 setdash 2 copy moveto
	2 copy vpt 270 360 arc closepath fill
	vpt 0 360 arc closepath} bind def
/C9 {BL [] 0 setdash 2 copy moveto
	2 copy vpt 270 450 arc closepath fill
	vpt 0 360 arc closepath} bind def
/C10 {BL [] 0 setdash 2 copy 2 copy moveto vpt 270 360 arc closepath fill
	2 copy moveto
	2 copy vpt 90 180 arc closepath fill
	vpt 0 360 arc closepath} bind def
/C11 {BL [] 0 setdash 2 copy moveto
	2 copy vpt 0 180 arc closepath fill
	2 copy moveto
	2 copy vpt 270 360 arc closepath fill
	vpt 0 360 arc closepath} bind def
/C12 {BL [] 0 setdash 2 copy moveto
	2 copy vpt 180 360 arc closepath fill
	vpt 0 360 arc closepath} bind def
/C13 {BL [] 0 setdash 2 copy moveto
	2 copy vpt 0 90 arc closepath fill
	2 copy moveto
	2 copy vpt 180 360 arc closepath fill
	vpt 0 360 arc closepath} bind def
/C14 {BL [] 0 setdash 2 copy moveto
	2 copy vpt 90 360 arc closepath fill
	vpt 0 360 arc} bind def
/C15 {BL [] 0 setdash 2 copy vpt 0 360 arc closepath fill
	vpt 0 360 arc closepath} bind def
/Rec {newpath 4 2 roll moveto 1 index 0 rlineto 0 exch rlineto
	neg 0 rlineto closepath} bind def
/Square {dup Rec} bind def
/Bsquare {vpt sub exch vpt sub exch vpt2 Square} bind def
/S0 {BL [] 0 setdash 2 copy moveto 0 vpt rlineto BL Bsquare} bind def
/S1 {BL [] 0 setdash 2 copy vpt Square fill Bsquare} bind def
/S2 {BL [] 0 setdash 2 copy exch vpt sub exch vpt Square fill Bsquare} bind def
/S3 {BL [] 0 setdash 2 copy exch vpt sub exch vpt2 vpt Rec fill Bsquare} bind def
/S4 {BL [] 0 setdash 2 copy exch vpt sub exch vpt sub vpt Square fill Bsquare} bind def
/S5 {BL [] 0 setdash 2 copy 2 copy vpt Square fill
	exch vpt sub exch vpt sub vpt Square fill Bsquare} bind def
/S6 {BL [] 0 setdash 2 copy exch vpt sub exch vpt sub vpt vpt2 Rec fill Bsquare} bind def
/S7 {BL [] 0 setdash 2 copy exch vpt sub exch vpt sub vpt vpt2 Rec fill
	2 copy vpt Square fill Bsquare} bind def
/S8 {BL [] 0 setdash 2 copy vpt sub vpt Square fill Bsquare} bind def
/S9 {BL [] 0 setdash 2 copy vpt sub vpt vpt2 Rec fill Bsquare} bind def
/S10 {BL [] 0 setdash 2 copy vpt sub vpt Square fill 2 copy exch vpt sub exch vpt Square fill
	Bsquare} bind def
/S11 {BL [] 0 setdash 2 copy vpt sub vpt Square fill 2 copy exch vpt sub exch vpt2 vpt Rec fill
	Bsquare} bind def
/S12 {BL [] 0 setdash 2 copy exch vpt sub exch vpt sub vpt2 vpt Rec fill Bsquare} bind def
/S13 {BL [] 0 setdash 2 copy exch vpt sub exch vpt sub vpt2 vpt Rec fill
	2 copy vpt Square fill Bsquare} bind def
/S14 {BL [] 0 setdash 2 copy exch vpt sub exch vpt sub vpt2 vpt Rec fill
	2 copy exch vpt sub exch vpt Square fill Bsquare} bind def
/S15 {BL [] 0 setdash 2 copy Bsquare fill Bsquare} bind def
/D0 {gsave translate 45 rotate 0 0 S0 stroke grestore} bind def
/D1 {gsave translate 45 rotate 0 0 S1 stroke grestore} bind def
/D2 {gsave translate 45 rotate 0 0 S2 stroke grestore} bind def
/D3 {gsave translate 45 rotate 0 0 S3 stroke grestore} bind def
/D4 {gsave translate 45 rotate 0 0 S4 stroke grestore} bind def
/D5 {gsave translate 45 rotate 0 0 S5 stroke grestore} bind def
/D6 {gsave translate 45 rotate 0 0 S6 stroke grestore} bind def
/D7 {gsave translate 45 rotate 0 0 S7 stroke grestore} bind def
/D8 {gsave translate 45 rotate 0 0 S8 stroke grestore} bind def
/D9 {gsave translate 45 rotate 0 0 S9 stroke grestore} bind def
/D10 {gsave translate 45 rotate 0 0 S10 stroke grestore} bind def
/D11 {gsave translate 45 rotate 0 0 S11 stroke grestore} bind def
/D12 {gsave translate 45 rotate 0 0 S12 stroke grestore} bind def
/D13 {gsave translate 45 rotate 0 0 S13 stroke grestore} bind def
/D14 {gsave translate 45 rotate 0 0 S14 stroke grestore} bind def
/D15 {gsave translate 45 rotate 0 0 S15 stroke grestore} bind def
/DiaE {stroke [] 0 setdash vpt add M
  hpt neg vpt neg V hpt vpt neg V
  hpt vpt V hpt neg vpt V closepath stroke} def
/BoxE {stroke [] 0 setdash exch hpt sub exch vpt add M
  0 vpt2 neg V hpt2 0 V 0 vpt2 V
  hpt2 neg 0 V closepath stroke} def
/TriUE {stroke [] 0 setdash vpt 1.12 mul add M
  hpt neg vpt -1.62 mul V
  hpt 2 mul 0 V
  hpt neg vpt 1.62 mul V closepath stroke} def
/TriDE {stroke [] 0 setdash vpt 1.12 mul sub M
  hpt neg vpt 1.62 mul V
  hpt 2 mul 0 V
  hpt neg vpt -1.62 mul V closepath stroke} def
/PentE {stroke [] 0 setdash gsave
  translate 0 hpt M 4 {72 rotate 0 hpt L} repeat
  closepath stroke grestore} def
/CircE {stroke [] 0 setdash 
  hpt 0 360 arc stroke} def
/Opaque {gsave closepath 1 setgray fill grestore 0 setgray closepath} def
/DiaW {stroke [] 0 setdash vpt add M
  hpt neg vpt neg V hpt vpt neg V
  hpt vpt V hpt neg vpt V Opaque stroke} def
/BoxW {stroke [] 0 setdash exch hpt sub exch vpt add M
  0 vpt2 neg V hpt2 0 V 0 vpt2 V
  hpt2 neg 0 V Opaque stroke} def
/TriUW {stroke [] 0 setdash vpt 1.12 mul add M
  hpt neg vpt -1.62 mul V
  hpt 2 mul 0 V
  hpt neg vpt 1.62 mul V Opaque stroke} def
/TriDW {stroke [] 0 setdash vpt 1.12 mul sub M
  hpt neg vpt 1.62 mul V
  hpt 2 mul 0 V
  hpt neg vpt -1.62 mul V Opaque stroke} def
/PentW {stroke [] 0 setdash gsave
  translate 0 hpt M 4 {72 rotate 0 hpt L} repeat
  Opaque stroke grestore} def
/CircW {stroke [] 0 setdash 
  hpt 0 360 arc Opaque stroke} def
/BoxFill {gsave Rec 1 setgray fill grestore} def
/Density {
  /Fillden exch def
  currentrgbcolor
  /ColB exch def /ColG exch def /ColR exch def
  /ColR ColR Fillden mul Fillden sub 1 add def
  /ColG ColG Fillden mul Fillden sub 1 add def
  /ColB ColB Fillden mul Fillden sub 1 add def
  ColR ColG ColB setrgbcolor} def
/BoxColFill {gsave Rec PolyFill} def
/PolyFill {gsave Density fill grestore grestore} def
/h {rlineto rlineto rlineto gsave closepath fill grestore} bind def
%
% PostScript Level 1 Pattern Fill routine for rectangles
% Usage: x y w h s a XX PatternFill
%	x,y = lower left corner of box to be filled
%	w,h = width and height of box
%	  a = angle in degrees between lines and x-axis
%	 XX = 0/1 for no/yes cross-hatch
%
/PatternFill {gsave /PFa [ 9 2 roll ] def
  PFa 0 get PFa 2 get 2 div add PFa 1 get PFa 3 get 2 div add translate
  PFa 2 get -2 div PFa 3 get -2 div PFa 2 get PFa 3 get Rec
  TransparentPatterns {} {gsave 1 setgray fill grestore} ifelse
  clip
  currentlinewidth 0.5 mul setlinewidth
  /PFs PFa 2 get dup mul PFa 3 get dup mul add sqrt def
  0 0 M PFa 5 get rotate PFs -2 div dup translate
  0 1 PFs PFa 4 get div 1 add floor cvi
	{PFa 4 get mul 0 M 0 PFs V} for
  0 PFa 6 get ne {
	0 1 PFs PFa 4 get div 1 add floor cvi
	{PFa 4 get mul 0 2 1 roll M PFs 0 V} for
 } if
  stroke grestore} def
%
/languagelevel where
 {pop languagelevel} {1} ifelse
 2 lt
	{/InterpretLevel1 true def}
	{/InterpretLevel1 Level1 def}
 ifelse
%
% PostScript level 2 pattern fill definitions
%
/Level2PatternFill {
/Tile8x8 {/PaintType 2 /PatternType 1 /TilingType 1 /BBox [0 0 8 8] /XStep 8 /YStep 8}
	bind def
/KeepColor {currentrgbcolor [/Pattern /DeviceRGB] setcolorspace} bind def
<< Tile8x8
 /PaintProc {0.5 setlinewidth pop 0 0 M 8 8 L 0 8 M 8 0 L stroke} 
>> matrix makepattern
/Pat1 exch def
<< Tile8x8
 /PaintProc {0.5 setlinewidth pop 0 0 M 8 8 L 0 8 M 8 0 L stroke
	0 4 M 4 8 L 8 4 L 4 0 L 0 4 L stroke}
>> matrix makepattern
/Pat2 exch def
<< Tile8x8
 /PaintProc {0.5 setlinewidth pop 0 0 M 0 8 L
	8 8 L 8 0 L 0 0 L fill}
>> matrix makepattern
/Pat3 exch def
<< Tile8x8
 /PaintProc {0.5 setlinewidth pop -4 8 M 8 -4 L
	0 12 M 12 0 L stroke}
>> matrix makepattern
/Pat4 exch def
<< Tile8x8
 /PaintProc {0.5 setlinewidth pop -4 0 M 8 12 L
	0 -4 M 12 8 L stroke}
>> matrix makepattern
/Pat5 exch def
<< Tile8x8
 /PaintProc {0.5 setlinewidth pop -2 8 M 4 -4 L
	0 12 M 8 -4 L 4 12 M 10 0 L stroke}
>> matrix makepattern
/Pat6 exch def
<< Tile8x8
 /PaintProc {0.5 setlinewidth pop -2 0 M 4 12 L
	0 -4 M 8 12 L 4 -4 M 10 8 L stroke}
>> matrix makepattern
/Pat7 exch def
<< Tile8x8
 /PaintProc {0.5 setlinewidth pop 8 -2 M -4 4 L
	12 0 M -4 8 L 12 4 M 0 10 L stroke}
>> matrix makepattern
/Pat8 exch def
<< Tile8x8
 /PaintProc {0.5 setlinewidth pop 0 -2 M 12 4 L
	-4 0 M 12 8 L -4 4 M 8 10 L stroke}
>> matrix makepattern
/Pat9 exch def
/Pattern1 {PatternBgnd KeepColor Pat1 setpattern} bind def
/Pattern2 {PatternBgnd KeepColor Pat2 setpattern} bind def
/Pattern3 {PatternBgnd KeepColor Pat3 setpattern} bind def
/Pattern4 {PatternBgnd KeepColor Landscape {Pat5} {Pat4} ifelse setpattern} bind def
/Pattern5 {PatternBgnd KeepColor Landscape {Pat4} {Pat5} ifelse setpattern} bind def
/Pattern6 {PatternBgnd KeepColor Landscape {Pat9} {Pat6} ifelse setpattern} bind def
/Pattern7 {PatternBgnd KeepColor Landscape {Pat8} {Pat7} ifelse setpattern} bind def
} def
%
%
%End of PostScript Level 2 code
%
/PatternBgnd {
  TransparentPatterns {} {gsave 1 setgray fill grestore} ifelse
} def
%
% Substitute for Level 2 pattern fill codes with
% grayscale if Level 2 support is not selected.
%
/Level1PatternFill {
/Pattern1 {0.250 Density} bind def
/Pattern2 {0.500 Density} bind def
/Pattern3 {0.750 Density} bind def
/Pattern4 {0.125 Density} bind def
/Pattern5 {0.375 Density} bind def
/Pattern6 {0.625 Density} bind def
/Pattern7 {0.875 Density} bind def
} def
%
% Now test for support of Level 2 code
%
Level1 {Level1PatternFill} {Level2PatternFill} ifelse
%
/Symbol-Oblique /Symbol findfont [1 0 .167 1 0 0] makefont
dup length dict begin {1 index /FID eq {pop pop} {def} ifelse} forall
currentdict end definefont pop
Level1 SuppressPDFMark or 
{} {
/SDict 10 dict def
systemdict /pdfmark known not {
  userdict /pdfmark systemdict /cleartomark get put
} if
SDict begin [
  /Title (obrazek.eps)
  /Subject (gnuplot plot)
  /Creator (gnuplot 4.6 patchlevel 2)
  /Author (student)
%  /Producer (gnuplot)
%  /Keywords ()
  /CreationDate (Fri Nov 16 12:59:38 2018)
  /DOCINFO pdfmark
end
} ifelse
end
%%EndProlog
%%Page: 1 1
gnudict begin
gsave
doclip
50 50 translate
0.050 0.050 scale
0 setgray
newpath
(Helvetica) findfont 140 scalefont setfont
BackgroundColor 0 lt 3 1 roll 0 lt exch 0 lt or or not {BackgroundColor C 1.000 0 0 7200.00 5040.00 BoxColFill} if
1.000 UL
LTb
LCb setrgbcolor
1.000 UL
LTa
LCa setrgbcolor
854 448 M
6093 0 V
stroke
LTb
LCb setrgbcolor
854 448 M
63 0 V
6030 0 R
-63 0 V
770 448 M
( 0) Rshow
1.000 UL
LTb
LCb setrgbcolor
854 500 M
31 0 V
6062 0 R
-31 0 V
854 552 M
31 0 V
6062 0 R
-31 0 V
854 604 M
31 0 V
6062 0 R
-31 0 V
854 657 M
31 0 V
6062 0 R
-31 0 V
854 709 M
31 0 V
6062 0 R
-31 0 V
854 761 M
31 0 V
6062 0 R
-31 0 V
854 813 M
31 0 V
6062 0 R
-31 0 V
854 865 M
31 0 V
6062 0 R
-31 0 V
854 917 M
31 0 V
6062 0 R
-31 0 V
stroke
LTa
LCa setrgbcolor
854 969 M
6093 0 V
stroke
LTb
LCb setrgbcolor
854 969 M
63 0 V
6030 0 R
-63 0 V
770 969 M
( 10000) Rshow
1.000 UL
LTb
LCb setrgbcolor
854 1022 M
31 0 V
6062 0 R
-31 0 V
854 1074 M
31 0 V
6062 0 R
-31 0 V
854 1126 M
31 0 V
6062 0 R
-31 0 V
854 1178 M
31 0 V
6062 0 R
-31 0 V
854 1230 M
31 0 V
6062 0 R
-31 0 V
854 1282 M
31 0 V
6062 0 R
-31 0 V
854 1334 M
31 0 V
6062 0 R
-31 0 V
854 1386 M
31 0 V
6062 0 R
-31 0 V
854 1439 M
31 0 V
6062 0 R
-31 0 V
stroke
LTa
LCa setrgbcolor
854 1491 M
6093 0 V
stroke
LTb
LCb setrgbcolor
854 1491 M
63 0 V
6030 0 R
-63 0 V
-6114 0 R
( 20000) Rshow
1.000 UL
LTb
LCb setrgbcolor
854 1543 M
31 0 V
6062 0 R
-31 0 V
854 1595 M
31 0 V
6062 0 R
-31 0 V
854 1647 M
31 0 V
6062 0 R
-31 0 V
854 1699 M
31 0 V
6062 0 R
-31 0 V
854 1751 M
31 0 V
6062 0 R
-31 0 V
854 1804 M
31 0 V
6062 0 R
-31 0 V
854 1856 M
31 0 V
6062 0 R
-31 0 V
854 1908 M
31 0 V
6062 0 R
-31 0 V
854 1960 M
31 0 V
6062 0 R
-31 0 V
stroke
LTa
LCa setrgbcolor
854 2012 M
6093 0 V
stroke
LTb
LCb setrgbcolor
854 2012 M
63 0 V
6030 0 R
-63 0 V
-6114 0 R
( 30000) Rshow
1.000 UL
LTb
LCb setrgbcolor
854 2064 M
31 0 V
6062 0 R
-31 0 V
854 2116 M
31 0 V
6062 0 R
-31 0 V
854 2169 M
31 0 V
6062 0 R
-31 0 V
854 2221 M
31 0 V
6062 0 R
-31 0 V
854 2273 M
31 0 V
6062 0 R
-31 0 V
854 2325 M
31 0 V
6062 0 R
-31 0 V
854 2377 M
31 0 V
6062 0 R
-31 0 V
854 2429 M
31 0 V
6062 0 R
-31 0 V
854 2481 M
31 0 V
6062 0 R
-31 0 V
stroke
LTa
LCa setrgbcolor
854 2533 M
6093 0 V
stroke
LTb
LCb setrgbcolor
854 2533 M
63 0 V
6030 0 R
-63 0 V
-6114 0 R
( 40000) Rshow
1.000 UL
LTb
LCb setrgbcolor
854 2586 M
31 0 V
6062 0 R
-31 0 V
854 2638 M
31 0 V
6062 0 R
-31 0 V
854 2690 M
31 0 V
6062 0 R
-31 0 V
854 2742 M
31 0 V
6062 0 R
-31 0 V
854 2794 M
31 0 V
6062 0 R
-31 0 V
854 2846 M
31 0 V
6062 0 R
-31 0 V
854 2898 M
31 0 V
6062 0 R
-31 0 V
854 2951 M
31 0 V
6062 0 R
-31 0 V
854 3003 M
31 0 V
6062 0 R
-31 0 V
stroke
LTa
LCa setrgbcolor
854 3055 M
6093 0 V
stroke
LTb
LCb setrgbcolor
854 3055 M
63 0 V
6030 0 R
-63 0 V
-6114 0 R
( 50000) Rshow
1.000 UL
LTb
LCb setrgbcolor
854 3107 M
31 0 V
6062 0 R
-31 0 V
854 3159 M
31 0 V
6062 0 R
-31 0 V
854 3211 M
31 0 V
6062 0 R
-31 0 V
854 3263 M
31 0 V
6062 0 R
-31 0 V
854 3316 M
31 0 V
6062 0 R
-31 0 V
854 3368 M
31 0 V
6062 0 R
-31 0 V
854 3420 M
31 0 V
6062 0 R
-31 0 V
854 3472 M
31 0 V
6062 0 R
-31 0 V
854 3524 M
31 0 V
6062 0 R
-31 0 V
stroke
LTa
LCa setrgbcolor
854 3576 M
6093 0 V
stroke
LTb
LCb setrgbcolor
854 3576 M
63 0 V
6030 0 R
-63 0 V
-6114 0 R
( 60000) Rshow
1.000 UL
LTb
LCb setrgbcolor
854 3628 M
31 0 V
6062 0 R
-31 0 V
854 3681 M
31 0 V
6062 0 R
-31 0 V
854 3733 M
31 0 V
6062 0 R
-31 0 V
854 3785 M
31 0 V
6062 0 R
-31 0 V
854 3837 M
31 0 V
6062 0 R
-31 0 V
854 3889 M
31 0 V
6062 0 R
-31 0 V
854 3941 M
31 0 V
6062 0 R
-31 0 V
854 3993 M
31 0 V
6062 0 R
-31 0 V
854 4045 M
31 0 V
6062 0 R
-31 0 V
stroke
LTa
LCa setrgbcolor
854 4098 M
6093 0 V
stroke
LTb
LCb setrgbcolor
854 4098 M
63 0 V
6030 0 R
-63 0 V
-6114 0 R
( 70000) Rshow
1.000 UL
LTb
LCb setrgbcolor
854 4150 M
31 0 V
6062 0 R
-31 0 V
854 4202 M
31 0 V
6062 0 R
-31 0 V
854 4254 M
31 0 V
6062 0 R
-31 0 V
854 4306 M
31 0 V
6062 0 R
-31 0 V
854 4358 M
31 0 V
6062 0 R
-31 0 V
854 4410 M
31 0 V
6062 0 R
-31 0 V
854 4463 M
31 0 V
6062 0 R
-31 0 V
854 4515 M
31 0 V
6062 0 R
-31 0 V
854 4567 M
31 0 V
6062 0 R
-31 0 V
stroke
LTa
LCa setrgbcolor
854 4619 M
6093 0 V
stroke
LTb
LCb setrgbcolor
854 4619 M
63 0 V
6030 0 R
-63 0 V
-6114 0 R
( 80000) Rshow
1.000 UL
LTb
LCb setrgbcolor
1.000 UL
LTa
LCa setrgbcolor
854 448 M
0 4171 V
stroke
LTb
LCb setrgbcolor
854 448 M
0 63 V
0 4108 R
0 -63 V
854 308 M
( 100) Cshow
1.000 UL
LTb
LCb setrgbcolor
854 448 M
0 31 V
0 4140 R
0 -31 V
1280 448 M
0 31 V
0 4140 R
0 -31 V
1530 448 M
0 31 V
0 4140 R
0 -31 V
1707 448 M
0 31 V
0 4140 R
0 -31 V
1844 448 M
0 31 V
0 4140 R
0 -31 V
1956 448 M
0 31 V
0 4140 R
0 -31 V
2051 448 M
0 31 V
0 4140 R
0 -31 V
2133 448 M
0 31 V
0 4140 R
0 -31 V
2206 448 M
0 31 V
0 4140 R
0 -31 V
stroke
LTa
LCa setrgbcolor
2271 448 M
0 4171 V
stroke
LTb
LCb setrgbcolor
2271 448 M
0 63 V
0 4108 R
0 -63 V
0 -4248 R
( 1000) Cshow
1.000 UL
LTb
LCb setrgbcolor
2271 448 M
0 31 V
0 4140 R
0 -31 V
2697 448 M
0 31 V
0 4140 R
0 -31 V
2947 448 M
0 31 V
0 4140 R
0 -31 V
3124 448 M
0 31 V
0 4140 R
0 -31 V
3261 448 M
0 31 V
0 4140 R
0 -31 V
3373 448 M
0 31 V
0 4140 R
0 -31 V
3468 448 M
0 31 V
0 4140 R
0 -31 V
3550 448 M
0 31 V
0 4140 R
0 -31 V
3622 448 M
0 31 V
0 4140 R
0 -31 V
stroke
LTa
LCa setrgbcolor
3687 448 M
0 4171 V
stroke
LTb
LCb setrgbcolor
3687 448 M
0 63 V
0 4108 R
0 -63 V
0 -4248 R
( 10000) Cshow
1.000 UL
LTb
LCb setrgbcolor
3687 448 M
0 31 V
0 4140 R
0 -31 V
4114 448 M
0 31 V
0 4140 R
0 -31 V
4363 448 M
0 31 V
0 4140 R
0 -31 V
4540 448 M
0 31 V
0 4140 R
0 -31 V
4677 448 M
0 31 V
0 4140 R
0 -31 V
4790 448 M
0 31 V
0 4140 R
0 -31 V
4884 448 M
0 31 V
0 4140 R
0 -31 V
4967 448 M
0 31 V
0 4140 R
0 -31 V
5039 448 M
0 31 V
0 4140 R
0 -31 V
stroke
LTa
LCa setrgbcolor
5104 448 M
0 3828 V
0 280 R
0 63 V
stroke
LTb
LCb setrgbcolor
5104 448 M
0 63 V
0 4108 R
0 -63 V
0 -4248 R
( 100000) Cshow
1.000 UL
LTb
LCb setrgbcolor
5104 448 M
0 31 V
0 4140 R
0 -31 V
5530 448 M
0 31 V
0 4140 R
0 -31 V
5780 448 M
0 31 V
0 4140 R
0 -31 V
5957 448 M
0 31 V
0 4140 R
0 -31 V
6094 448 M
0 31 V
0 4140 R
0 -31 V
6206 448 M
0 31 V
0 4140 R
0 -31 V
6301 448 M
0 31 V
0 4140 R
0 -31 V
6383 448 M
0 31 V
0 4140 R
0 -31 V
6456 448 M
0 31 V
0 4140 R
0 -31 V
stroke
LTa
LCa setrgbcolor
6521 448 M
0 3828 V
0 280 R
0 63 V
stroke
LTb
LCb setrgbcolor
6521 448 M
0 63 V
0 4108 R
0 -63 V
0 -4248 R
( 1e+06) Cshow
1.000 UL
LTb
LCb setrgbcolor
6521 448 M
0 31 V
0 4140 R
0 -31 V
6947 448 M
0 31 V
0 4140 R
0 -31 V
stroke
LTb
LCb setrgbcolor
854 4619 N
854 448 L
6093 0 V
0 4171 V
-6093 0 V
Z stroke
LCb setrgbcolor
112 2533 M
currentpoint gsave translate -270 rotate 0 0 M
(Bandwidth) Cshow
grestore
LTb
LCb setrgbcolor
3900 98 M
(Array size) Cshow
LTb
3900 4829 M
(Memory benchmark) Cshow
1.000 UP
1.000 UL
LTb
LCb setrgbcolor
% Begin plot #1
1.000 UP
1.000 UL
LT1
LC1 setrgbcolor
LCb setrgbcolor
6296 4486 M
(Ivy Bridge - vectorized) Rshow
LT1
854 3679 Crs
2499 4436 Crs
2563 4310 Crs
2627 4231 Crs
2691 4185 Crs
2755 4209 Crs
2819 4220 Crs
2883 4264 Crs
2947 4208 Crs
3011 4173 Crs
3075 4210 Crs
3139 4211 Crs
3204 4216 Crs
3268 4228 Crs
3332 4178 Crs
3396 3845 Crs
3460 3692 Crs
3524 3400 Crs
3589 3290 Crs
3653 3221 Crs
3717 3137 Crs
3781 3018 Crs
3845 2916 Crs
3910 2875 Crs
3974 2842 Crs
4038 2849 Crs
4102 2815 Crs
4166 2804 Crs
4231 2805 Crs
4295 2821 Crs
4359 2802 Crs
4423 2812 Crs
4487 2813 Crs
4552 2795 Crs
4616 2801 Crs
4680 2797 Crs
4744 2806 Crs
4808 2797 Crs
4873 2808 Crs
4937 2825 Crs
5001 2826 Crs
5065 2814 Crs
5129 2813 Crs
5194 2801 Crs
5258 2819 Crs
5322 2809 Crs
5386 2798 Crs
5450 2771 Crs
5515 2688 Crs
5579 2512 Crs
5643 2295 Crs
5707 2042 Crs
5771 1856 Crs
5836 1702 Crs
5900 1480 Crs
5964 1337 Crs
6028 1255 Crs
6092 1207 Crs
6157 1183 Crs
6221 1169 Crs
6285 1138 Crs
6349 1134 Crs
6413 1133 Crs
6478 1134 Crs
6542 1132 Crs
6606 1132 Crs
6670 1131 Crs
6734 1131 Crs
6799 1133 Crs
6863 1133 Crs
6927 1133 Crs
6579 4486 Crs
% End plot #1
% Begin plot #2
1.000 UP
1.000 UL
LT2
LC2 setrgbcolor
% End plot #2
1.000 UL
LTb
LCb setrgbcolor
854 4619 N
854 448 L
6093 0 V
0 4171 V
-6093 0 V
Z stroke
1.000 UP
1.000 UL
LTb
LCb setrgbcolor
stroke
grestore
end
showpage
%%Trailer
%%DocumentFonts: Helvetica
